{
	"$schema": "https://raw.githubusercontent.com/martinring/tmlanguage/master/tmlanguage.json",
	"name": "Small Basic",
	"patterns": [
		{
			"include": "#parentheses"
		},
		{
			"include": "#brackets"
		},
		{
			"name": "support.function.smallvisualbasic",
			"match": "(?i:(?:(\\b[a-zA-Z_][a-zA-Z0-9_]*?\\b)\\.)?(\\b[a-zA-Z_][a-zA-Z0-9_]*?\\b)(?=\\(\\)?))",
			"captures": {
				"1": {
					"name": "entity.name.type.class.smallvisualbasic"
				},
				"2": {
					"name": "entity.name.function.smallvisualbasic"
				}
			}
		},
		{
			"name": "support.variable.smallvisualbasic",
			"match": "(?i:(\\b[a-zA-Z_][a-zA-Z0-9_]*?\\b)\\.(\\b[a-zA-Z_][a-zA-Z0-9_]*?\\b))",
			"captures": {
				"1": {
					"name": "entity.name.type.class.smallvisualbasic"
				},
				"2": {
					"name": "variable.other.smallvisualbasic"
				}
			}
		},
		{
			"name": "meta.function.smallvisualbasic",
			"match": "^\\s*((?i:Sub))\\s+([a-zA-Z_]\\w*)\\b",
			"captures": {
				"1": {
					"name": "keyword.control.smallvisualbasic"
				},
				"2": {
					"name": "variable.other.sub.smallvisualbasic"
				}
			}
		},
		{
			"name": "keyword.control.smallvisualbasic",
			"match": "\\b(?i:For|EndFor|Next|To|Step|ForEach|In|If|Then|Else|ElseIf|EndIf|Goto|Sub|EndSub|Function|EndFunction|While|EndWhile|Wend|ExitLoop|ContinueLoop|Return)\\b"
		},
		{
			"name": "keyword.operator.smallvisualbasic",
			"match": "\\+|\\-|\\*|\\/|>|<|=|>=|<=|<>"
		},
		{
			"name": "keyword.operator.logical.smallvisualbasic",
			"match": "\\b(?i:And|Or)\\b"
		},
		{
			"name": "string.quoted.double.smallvisualbasic",
			"match": "\".*?\""
		},
		{
			"name": "constant.numeric.mavl",
			"match": "\\b(0|[1-9]\\d*)(\\.[0-9]+)?\\b"
		},
		{
			"name": "comment.line.smallvisualbasic",
			"match": "'.*"
		}
	],
	"repository": {
		"parentheses": {
			"name": "meta.parentheses.smallvisualbasic",
			"begin": "\\(",
			"beginCaptures": {
				"0": {
					"name": "punctuation.parentheses.begin.smallvisualbasic"
				}
			},
			"end": "\\)",
			"endCaptures": {
				"0": {
					"name": "punctuation.parentheses.end.smallvisualbasic"
				}
			},
			"patterns": [
				{
					"include": "source.smallvisualbasic"
				}
			]
		},
		"brackets": {
			"name": "meta.brackets.smallvisualbasic",
			"begin": "\\[",
			"beginCaptures": {
				"0": {
					"name": "punctuation.brackets.begin.smallvisualbasic"
				}
			},
			"end": "\\]",
			"endCaptures": {
				"0": {
					"name": "punctuation.brackets.end.smallvisualbasic"
				}
			},
			"patterns": [
				{
					"include": "source.smallvisualbasic"
				}
			]
		}
	},
	"scopeName": "source.smallvisualbasic"
}